<?xml version="1.0" standalone="no"?>
<svg viewBox="0 0 200 200" xmlns="http://www.w3.org/2000/svg">
  <path fill="#F2F4F8" d="M38.4,-63.5C46.8,-54.4,48.4,-38.6,54.3,-25C60.2,-11.4,70.3,0.1,69.5,10.4C68.7,20.8,57,30,47.3,40.6C37.6,51.3,29.8,63.3,18.9,68.3C8,73.4,-6.2,71.3,-17.3,65.2C-28.5,59.1,-36.6,49,-44.7,39.1C-52.8,29.2,-60.9,19.5,-64.1,8.2C-67.2,-3.1,-65.5,-16.1,-60.2,-27.5C-55,-38.8,-46.2,-48.5,-35.5,-56.5C-24.9,-64.6,-12.5,-71,1.3,-73C15,-75,30.1,-72.6,38.4,-63.5Z" transform="translate(100 100)" />
</svg>
